module gitlab.com/l0nax/die-anstalt-downloader

go 1.20

require (
	github.com/go-resty/resty/v2 v2.7.0
	github.com/mmcdole/gofeed v1.2.1
	github.com/pkg/errors v0.9.1
)

require (
	github.com/PuerkitoBio/goquery v1.8.1 // indirect
	github.com/andybalholm/cascadia v1.3.1 // indirect
	github.com/json-iterator/go v1.1.12 // indirect
	github.com/mmcdole/goxpp v1.1.0 // indirect
	github.com/modern-go/concurrent v0.0.0-20180306012644-bacd9c7ef1dd // indirect
	github.com/modern-go/reflect2 v1.0.2 // indirect
	golang.org/x/net v0.8.0 // indirect
	golang.org/x/text v0.8.0 // indirect
)
